<?xml version="1.0" encoding="UTF-8" standalone="no"?>
<svg
   xmlns:dc="http://purl.org/dc/elements/1.1/"
   xmlns:cc="http://creativecommons.org/ns#"
   xmlns:rdf="http://www.w3.org/1999/02/22-rdf-syntax-ns#"
   xmlns:svg="http://www.w3.org/2000/svg"
   xmlns="http://www.w3.org/2000/svg"
   version="1.1"
   id="svg2"
   height="69.7891pt"
   width="168.65pt"
   viewBox="20 -5 169 90">
  <metadata
     id="metadata76">
    <rdf:RDF>
      <cc:Work
         rdf:about="">
        <dc:format>image/svg+xml</dc:format>
        <dc:type
           rdf:resource="http://purl.org/dc/dcmitype/StillImage" />
        <dc:title></dc:title>
      </cc:Work>
    </rdf:RDF>
  </metadata>
  <defs
     id="defs4">
    <linearGradient
       spreadMethod="pad"
       y2="2.66591906000"
       x2="3.05926890000"
       y1="3.68739871000"
       x1="3.07421358000"
       gradientUnits="objectBoundingBox"
       gradientTransform="translate(-192.738, -164.577)"
       id="gradient0">
      <stop
         id="stop7"
         stop-opacity="1.00000000000"
         offset="0.00000000000"
         stop-color="#c4282d" />
      <stop
         id="stop9"
         stop-opacity="1.00000000000"
         offset="1.00000000000"
         stop-color="#7f1a1d" />
    </linearGradient>
    <linearGradient
       spreadMethod="pad"
       y2="22.55834051000"
       x2="1.18479721000"
       y1="23.29093276000"
       x1="1.18479721000"
       gradientUnits="objectBoundingBox"
       gradientTransform="translate(-76.951, -318.054)"
       id="gradient1">
      <stop
         id="stop12"
         stop-opacity="1.00000000000"
         offset="0.00000000000"
         stop-color="#c4282d" />
      <stop
         id="stop14"
         stop-opacity="1.00000000000"
         offset="1.00000000000"
         stop-color="#7f1a1d" />
    </linearGradient>
    <linearGradient
       spreadMethod="pad"
       y2="4.83450266000"
       x2="3.88932443000"
       y1="3.81858844000"
       x1="3.89454694000"
       gradientUnits="objectBoundingBox"
       gradientTransform="translate(-193.811, -165.636)"
       id="gradient2">
      <stop
         id="stop17"
         stop-opacity="1.00000000000"
         offset="0.00000000000"
         stop-color="#ffffff" />
      <stop
         id="stop19"
         stop-opacity="0.00000000000"
         offset="1.00000000000"
         stop-color="#ffffff" />
    </linearGradient>
    <linearGradient
       spreadMethod="pad"
       y2="39.37436364000"
       x2="1.19566500000"
       y1="38.52618545000"
       x1="1.19566500000"
       gradientUnits="objectBoundingBox"
       gradientTransform="translate(-77.875, -319)"
       id="gradient3">
      <stop
         id="stop22"
         stop-opacity="1.00000000000"
         offset="0.00000000000"
         stop-color="#ffffff" />
      <stop
         id="stop24"
         stop-opacity="0.00000000000"
         offset="1.00000000000"
         stop-color="#ffffff" />
    </linearGradient>
  </defs>
  <g
     id="layer0">
    <g
       fill="none"
       transform="translate(16.7231, 35.7547)"
       id="g3833">
      <path
         d="M27.0652 21.2022C25.7966 22.1882 24.2637 22.6815 22.4656 22.6815L6.50213 22.6815C4.68634 22.6815 3.17122 22.197 1.95576 21.2286C0.651593 20.2251 0 18.9881 0 17.5175L0 5.164C0 3.72864 0.651593 2.50041 1.95576 1.47934C3.22445 0.493439 4.7583 0 6.55535 0L22.5465 0C24.2203 0 25.6388 0.458263 26.802 1.37576C28.0175 2.2923 28.8012 3.73743 29.1541 5.7102L25.903 5.7102C25.6743 4.75851 25.2425 4.09212 24.6078 3.71202C24.0616 3.38372 23.3656 3.21957 22.5199 3.21957L6.55535 3.21957C5.60311 3.21957 4.7928 3.43648 4.12347 3.86836C3.54285 4.23184 3.25106 4.66373 3.25106 5.16596L3.25106 17.5195C3.25106 18.0384 3.54186 18.4888 4.12347 18.8689L4.09784 18.8435C4.74943 19.2763 5.55184 19.4922 6.50311 19.4922L22.4676 19.4922C23.2957 19.4922 24.035 19.3193 24.6876 18.9734C25.4634 18.61 25.8508 18.1175 25.8508 17.4941L25.8508 12.9525L12.9244 12.9525L12.9244 9.76031L29.0743 9.76031L29.0743 17.5195C29.0743 18.9539 28.4039 20.1811 27.0652 21.2022Z"
         fill="#999999"
         transform="translate(-5.52284, -4.3008)"
         id="path3835" />
      <path
         d="M26.9948 11.4713C25.7838 12.4405 24.2643 12.9242 22.4384 12.9242L3.2393 12.9242L3.2393 22.6815L0 22.6815L0 5.164C0 3.72864 0.649235 2.50041 1.94869 1.47934C3.21278 0.493439 4.7401 0 6.53164 0L22.4384 0C24.2113 0 25.7219 0.493439 26.9683 1.47934C28.2854 2.50041 28.9435 3.72864 28.9435 5.164L28.9435 7.7592C28.9435 9.23072 28.2943 10.4678 26.9948 11.4713ZM25.7307 5.16498C25.7307 4.68131 25.4321 4.24846 24.8349 3.86739C24.1671 3.4355 23.3685 3.21859 22.4384 3.21859L6.50512 3.21859C5.69775 3.21859 4.96896 3.38274 4.31874 3.71105C3.59879 4.04034 3.2393 4.52498 3.2393 5.164L3.2393 9.73296L22.4384 9.73296C23.3685 9.73296 24.1671 9.52581 24.8349 9.10956C25.4311 8.72947 25.7307 8.27902 25.7307 7.76018Z"
         fill="#999999"
         transform="translate(29.0619, -4.3018)"
         id="path3837" />
      <path
         d="M28.9416 17.5743C28.6783 19.1125 27.9407 20.348 26.7297 21.281C25.5531 22.1789 24.1309 22.6288 22.4641 22.6288L6.53142 22.6288C4.74092 22.6288 3.22152 22.1448 1.97514 21.1776C0.659035 20.1752 0 18.9397 0 17.4708L0 0L3.29223 0L3.29223 17.4708C3.29223 17.9891 3.58196 18.439 4.16144 18.8186L4.13591 18.7932C4.78512 19.2256 5.58363 19.4414 6.5324 19.4414L22.4651 19.4414C23.2725 19.4414 23.9747 19.2686 24.5719 18.9231L24.5454 18.9231C25.1779 18.5434 25.6071 17.8954 25.8359 16.979L28.4161 16.979Z"
         fill="#999999"
         transform="translate(63.6226, -4.2738)"
         id="path3839" />
    </g>
    <g
       fill="none"
       transform="translate(172.701, 35.7697)"
       id="g3841">
      <path
         d="M29.8483 17.4691C29.8483 18.9379 29.1718 20.1733 27.8188 21.1757C26.5736 22.1438 25.0218 22.6268 23.1645 22.6268L6.79293 22.6268C5.07916 22.6268 3.62725 22.1858 2.43617 21.3055C1.15542 20.3549 0.343365 18.9037 0 16.9509L3.32871 16.9509C3.56305 17.8663 3.99608 18.5231 4.62779 18.9213L4.60028 18.9213C5.21365 19.2667 5.94419 19.4395 6.79191 19.4395L23.1635 19.4395C24.1008 19.4395 24.9128 19.2316 25.5996 18.8168C26.213 18.4373 26.5196 17.9873 26.5196 17.4691L26.5196 14.8771C26.5196 14.3939 26.213 13.9616 25.5996 13.581C24.8782 13.1321 24.057 12.9067 23.137 12.9067L14.4233 12.9067L14.4233 9.71828L23.1645 9.71828C24.1202 9.71828 24.9322 9.5026 25.6006 9.07027C26.214 8.69063 26.5206 8.24952 26.5206 7.74886L26.5206 5.1568C26.5206 4.67274 26.214 4.24138 25.6006 3.86077C24.8792 3.41184 24.058 3.18738 23.138 3.18738L6.79293 3.18738C5.96355 3.18738 5.24116 3.36012 4.62779 3.7056L4.65428 3.7056C4.00525 4.06864 3.56305 4.72544 3.32871 5.67599L0 5.67599C0.325025 3.7056 1.11874 2.27196 2.38114 1.37313C3.5712 0.45771 5.04146 0 6.79191 0L23.1635 0C24.9852 0 26.5369 0.48406 27.8178 1.45121C29.1708 2.47105 29.8473 3.70657 29.8473 5.15777C29.8473 6.41868 29.7933 7.56831 29.6853 8.60475C29.6486 9.12297 29.4693 9.59923 29.1443 10.0306C28.9996 10.2209 28.8336 10.419 28.644 10.6269C28.4545 10.8348 28.2242 11.0592 27.9542 11.3002C28.4769 11.7668 28.8743 12.1991 29.1443 12.5962C29.4509 13.0803 29.6313 13.5469 29.6853 13.9957C29.7943 15.0156 29.8483 16.1731 29.8483 17.4691Z"
         fill="#999999"
         transform="translate(-5.54153, -4.3018)"
         id="path3843" />
    </g>
    <g
       fill="none"
       transform="translate(122.34, 4.29267)"
       id="g2628">
      <path
         d="M43.8922 0L63.5018 0L33.2956 50.8374C31.571 53.6711 29.8877 55.8516 28.2467 57.3798C26.6058 58.9078 25.0898 60.0192 23.6989 60.7128C22.3079 61.4085 21.1125 61.8112 20.1106 61.9218C19.1097 62.0336 18.4122 62.089 18.0241 62.089L0 62.089L0 18.1695L16.856 18.1695L16.9396 48.3377Z"
         fill="url(#gradient0)"
         transform="translate(-5.52985, -4.29267)"
         id="path2630" />
    </g>
    <rect
       height="11.33511174381pt"
       width="93.44818871048pt"
       fill="url(#gradient1)"
       transform="translate(0, 61.658)"
       id="rect2634" />
    <g
       fill="none"
       transform="translate(14.7231, 33.7547)"
       id="g2662">
      <path
         d="M27.0652 21.2022C25.7966 22.1882 24.2637 22.6815 22.4656 22.6815L6.50213 22.6815C4.68634 22.6815 3.17122 22.197 1.95576 21.2286C0.651593 20.2251 0 18.9881 0 17.5175L0 5.164C0 3.72864 0.651593 2.50041 1.95576 1.47934C3.22445 0.493439 4.7583 0 6.55535 0L22.5465 0C24.2203 0 25.6388 0.458263 26.802 1.37576C28.0175 2.2923 28.8012 3.73743 29.1541 5.7102L25.903 5.7102C25.6743 4.75851 25.2425 4.09212 24.6078 3.71202C24.0616 3.38372 23.3656 3.21957 22.5199 3.21957L6.55535 3.21957C5.60311 3.21957 4.7928 3.43648 4.12347 3.86836C3.54285 4.23184 3.25106 4.66373 3.25106 5.16596L3.25106 17.5195C3.25106 18.0384 3.54186 18.4888 4.12347 18.8689L4.09784 18.8435C4.74943 19.2763 5.55184 19.4922 6.50311 19.4922L22.4676 19.4922C23.2957 19.4922 24.035 19.3193 24.6876 18.9734C25.4634 18.61 25.8508 18.1175 25.8508 17.4941L25.8508 12.9525L12.9244 12.9525L12.9244 9.76031L29.0743 9.76031L29.0743 17.5195C29.0743 18.9539 28.4039 20.1811 27.0652 21.2022Z"
         fill="#000000"
         transform="translate(-5.5227, -4.30022)"
         id="path2664" />
      <path
         d="M26.9948 11.4713C25.7838 12.4405 24.2643 12.9242 22.4384 12.9242L3.2393 12.9242L3.2393 22.6815L0 22.6815L0 5.164C0 3.72864 0.649235 2.50041 1.94869 1.47934C3.21278 0.493439 4.7401 0 6.53164 0L22.4384 0C24.2113 0 25.7219 0.493439 26.9683 1.47934C28.2854 2.50041 28.9435 3.72864 28.9435 5.164L28.9435 7.7592C28.9435 9.23072 28.2943 10.4678 26.9948 11.4713ZM25.7307 5.16498C25.7307 4.68131 25.4321 4.24846 24.8349 3.86739C24.1671 3.4355 23.3685 3.21859 22.4384 3.21859L6.50512 3.21859C5.69775 3.21859 4.96896 3.38274 4.31874 3.71105C3.59879 4.04034 3.2393 4.52498 3.2393 5.164L3.2393 9.73296L22.4384 9.73296C23.3685 9.73296 24.1671 9.52581 24.8349 9.10956C25.4311 8.72947 25.7307 8.27902 25.7307 7.76018Z"
         fill="#000000"
         transform="translate(29.062, -4.30122)"
         id="path2666" />
      <path
         d="M28.9416 17.5743C28.6783 19.1125 27.9407 20.348 26.7297 21.281C25.5531 22.1789 24.1309 22.6288 22.4641 22.6288L6.53142 22.6288C4.74092 22.6288 3.22152 22.1448 1.97514 21.1776C0.659035 20.1752 0 18.9397 0 17.4708L0 0L3.29223 0L3.29223 17.4708C3.29223 17.9891 3.58196 18.439 4.16144 18.8186L4.13591 18.7932C4.78512 19.2256 5.58363 19.4414 6.5324 19.4414L22.4651 19.4414C23.2725 19.4414 23.9747 19.2686 24.5719 18.9231L24.5454 18.9231C25.1779 18.5434 25.6071 17.8954 25.8359 16.979L28.4161 16.979Z"
         fill="#000000"
         transform="translate(63.6227, -4.27322)"
         id="path2668" />
    </g>
    <g
       fill="none"
       transform="translate(170.701, 33.7697)"
       id="g2670">
      <path
         d="M29.8483 17.4691C29.8483 18.9379 29.1718 20.1733 27.8188 21.1757C26.5736 22.1438 25.0218 22.6268 23.1645 22.6268L6.79293 22.6268C5.07916 22.6268 3.62725 22.1858 2.43617 21.3055C1.15542 20.3549 0.343365 18.9037 0 16.9509L3.32871 16.9509C3.56305 17.8663 3.99608 18.5231 4.62779 18.9213L4.60028 18.9213C5.21365 19.2667 5.94419 19.4395 6.79191 19.4395L23.1635 19.4395C24.1008 19.4395 24.9128 19.2316 25.5996 18.8168C26.213 18.4373 26.5196 17.9873 26.5196 17.4691L26.5196 14.8771C26.5196 14.3939 26.213 13.9616 25.5996 13.581C24.8782 13.1321 24.057 12.9067 23.137 12.9067L14.4233 12.9067L14.4233 9.71828L23.1645 9.71828C24.1202 9.71828 24.9322 9.5026 25.6006 9.07027C26.214 8.69063 26.5206 8.24952 26.5206 7.74886L26.5206 5.1568C26.5206 4.67274 26.214 4.24138 25.6006 3.86077C24.8792 3.41184 24.058 3.18738 23.138 3.18738L6.79293 3.18738C5.96355 3.18738 5.24116 3.36012 4.62779 3.7056L4.65428 3.7056C4.00525 4.06864 3.56305 4.72544 3.32871 5.67599L0 5.67599C0.325025 3.7056 1.11874 2.27196 2.38114 1.37313C3.5712 0.45771 5.04146 0 6.79191 0L23.1635 0C24.9852 0 26.5369 0.48406 27.8178 1.45121C29.1708 2.47105 29.8473 3.70657 29.8473 5.15777C29.8473 6.41868 29.7933 7.56831 29.6853 8.60475C29.6486 9.12297 29.4693 9.59923 29.1443 10.0306C28.9996 10.2209 28.8336 10.419 28.644 10.6269C28.4545 10.8348 28.2242 11.0592 27.9542 11.3002C28.4769 11.7668 28.8743 12.1991 29.1443 12.5962C29.4509 13.0803 29.6313 13.5469 29.6853 13.9957C29.7943 15.0156 29.8483 16.1731 29.8483 17.4691Z"
         fill="#000000"
         transform="translate(-5.5414, -4.30122)"
         id="path2672" />
    </g>
    <g
       fill="none"
       transform="translate(22.917, 70.3487)"
       id="g4164">
      <path
         d="M8.64521 1.41355C8.68289 1.17701 8.63789 1.01362 8.5081 0.923365L8.51542 0.923365C8.39611 0.841669 8.22446 0.80082 7.99525 0.80082L3.70613 0.80082C3.44971 0.80082 3.21213 0.854018 2.99442 0.961364C2.80079 1.05256 2.68043 1.15895 2.6302 1.28435L2.17491 2.42051L5.33994 2.42051L5.02071 3.21468L1.85569 3.21468L0.882313 5.64184L0 5.64184L1.74788 1.28435C1.89022 0.928115 2.18956 0.621277 2.6417 0.367636C3.0813 0.123495 3.5439 0 4.0264 0L8.31552 0C8.77081 0 9.10886 0.114946 9.3318 0.341987C9.57671 0.569979 9.64475 0.927165 9.53485 1.41355Z"
         fill="#000000"
         transform="translate(-5.56815, -4.31083)"
         id="path4166" />
      <path
         d="M5.72615 1.60659C5.74367 1.33958 5.67049 1.15665 5.50765 1.05894C5.44685 1.01803 5.37882 0.988497 5.30153 0.973727C5.22423 0.958956 5.14384 0.951002 5.06036 0.951002L3.02076 0.951002C2.81566 0.951002 2.6116 0.994179 2.41063 1.08281C2.17771 1.18052 2.03754 1.30322 1.98808 1.45321L0.868815 4.84251L0 4.84251L1.59849 0.0011362L2.46732 0.0011362L2.40135 0.201108C2.57347 0.129527 2.73322 0.0783981 2.88266 0.0465844C3.03003 0.0159069 3.17948 0 3.32892 0L5.37367 0C5.76119 0 6.07759 0.10794 6.32391 0.323818C6.6197 0.586281 6.70729 1.0135 6.58671 1.60545L5.72615 1.60545Z"
         fill="#000000"
         transform="translate(3.18527, -2.63432)"
         id="path4168" />
      <path
         d="M5.90059 1.43468C5.75981 1.88338 5.45481 2.25029 4.98362 2.53882C4.59551 2.77509 4.20057 2.89323 3.8027 2.89323L1.86807 2.89323C1.74 2.89323 1.62074 2.88187 1.50832 2.85574C1.39688 2.83076 1.26197 2.78191 1.10262 2.70921L0.899281 3.3567L0.894394 3.3726C0.865066 3.50664 0.934474 3.62819 1.09969 3.7361C1.17007 3.79289 1.24438 3.83152 1.3216 3.85651C1.39883 3.87922 1.47801 3.89058 1.55622 3.89058L3.49085 3.89058C3.57003 3.89058 3.65118 3.88263 3.73329 3.86787C3.81639 3.85196 3.8985 3.82243 3.98258 3.78267C4.19862 3.68384 4.3824 3.50095 4.53295 3.23401L5.34922 3.23401C5.09506 3.82015 4.74606 4.245 4.30028 4.50853C3.93467 4.72891 3.56612 4.84023 3.19367 4.84023L1.26002 4.84023C0.88755 4.84023 0.575703 4.72777 0.323487 4.50058C0.00870669 4.2166 -0.0763427 3.84401 0.0683391 3.38169L0.675416 1.44377C0.81912 0.984857 1.11826 0.620222 1.57089 0.34646C1.95214 0.11473 2.35392 0 2.77527 0L4.70892 0C5.11656 0 5.44015 0.110186 5.6816 0.331694C5.97292 0.604319 6.04624 0.971226 5.90059 1.43468ZM5.07159 1.45059C5.1107 1.32791 5.07159 1.21886 4.95429 1.12685C4.82818 1.00871 4.64439 0.949644 4.40587 0.949644L2.47906 0.949644C2.31092 0.949644 2.11931 0.992809 1.90717 1.08142C1.68331 1.17456 1.5484 1.29496 1.50148 1.44377C1.4565 1.5869 1.51321 1.70845 1.67255 1.80614C1.81626 1.89929 1.98147 1.94473 2.16721 1.94473L4.10184 1.94473C4.33157 1.94473 4.54859 1.88906 4.7529 1.77546C4.92593 1.68232 5.03348 1.57441 5.07159 1.45059Z"
         fill="#000000"
         transform="translate(10.2059, -2.63232)"
         id="path4170" />
      <path
         d="M5.90147 1.43468C5.7607 1.88338 5.45568 2.25029 4.98447 2.53882C4.59635 2.77509 4.20139 2.89323 3.80351 2.89323L1.86978 2.89323C1.74073 2.89323 1.62244 2.88187 1.50904 2.85574C1.39759 2.83076 1.26268 2.78191 1.1043 2.70921L0.900957 3.3567L0.896069 3.3726C0.86674 3.50664 0.935174 3.62819 1.10039 3.7361C1.17175 3.79289 1.24508 3.83152 1.32231 3.85651C1.39955 3.87922 1.47873 3.89058 1.55694 3.89058L3.49165 3.89058C3.57083 3.89058 3.65198 3.88263 3.73409 3.86787C3.81719 3.85196 3.90029 3.82243 3.98339 3.78267C4.19944 3.68384 4.38323 3.50095 4.53379 3.23401L5.35009 3.23401C5.09591 3.82015 4.7469 4.245 4.30111 4.50853C3.93548 4.72891 3.56692 4.84023 3.19445 4.84023L1.25975 4.84023C0.888248 4.84023 0.575411 4.72777 0.323186 4.50058C0.00839336 4.2166 -0.0766593 3.84401 0.0690056 3.38169L0.676105 1.44377C0.819815 0.984857 1.11897 0.620222 1.57259 0.34646C1.95385 0.11473 2.35565 0 2.77603 0L4.71074 0C5.11742 0 5.44199 0.110186 5.68248 0.331694C5.97381 0.604319 6.04616 0.971226 5.90147 1.43468ZM5.07245 1.45059C5.11156 1.32791 5.07147 1.21886 4.95416 1.12685C4.82805 1.00871 4.64425 0.949644 4.40572 0.949644L2.47884 0.949644C2.31069 0.949644 2.11907 0.992809 1.90692 1.08142C1.68305 1.17456 1.54814 1.29496 1.50122 1.44377C1.45624 1.5869 1.51393 1.70845 1.67328 1.80614C1.81699 1.89929 1.98221 1.94473 2.16796 1.94473L4.10168 1.94473C4.33142 1.94473 4.54845 1.88906 4.75277 1.77546C4.92678 1.68232 5.03335 1.57441 5.07245 1.45059Z"
         fill="#000000"
         transform="translate(16.8388, -2.63232)"
         id="path4172" />
      <path
         d="M6.57968 5.28269C6.17859 5.52308 5.74573 5.64374 5.28309 5.64374L1.20071 5.64374C0.772819 5.64374 0.453138 5.53352 0.239687 5.31405C0.0103517 5.07747 -0.0541801 4.71642 0.0450995 4.22995L0.875076 4.22995C0.846285 4.45799 0.891954 4.62141 1.01208 4.72022L1.00513 4.72022C1.12626 4.80573 1.29204 4.84943 1.50252 4.84943L5.5849 4.84943C5.82317 4.84943 6.04556 4.79528 6.25205 4.68886C6.44068 4.5929 6.55982 4.48459 6.60748 4.35918L6.85269 3.71308C6.90035 3.58862 6.8656 3.4784 6.74845 3.38339C6.62435 3.27603 6.4387 3.22188 6.19646 3.22188L2.12103 3.22188C1.66336 3.22188 1.31885 3.10216 1.09151 2.86082C0.849264 2.60999 0.797638 2.30215 0.938615 1.93065L1.18483 1.28457C1.31984 0.928272 1.60378 0.621382 2.03267 0.367698C2.44965 0.123516 2.88847 0 3.34615 0L7.42852 0C7.85642 0 8.17312 0.114965 8.38358 0.342045C8.6159 0.570075 8.68142 0.927321 8.57619 1.41379L7.74721 1.41379C7.775 1.18576 7.72934 1.02138 7.60821 0.923521L7.61516 0.923521C7.50298 0.84181 7.33817 0.800955 7.12274 0.800955L3.04036 0.800955C2.79712 0.800955 2.56978 0.854162 2.35831 0.961526C2.17465 1.05273 2.06047 1.15915 2.01282 1.28457L1.7666 1.93065C1.71697 2.05987 1.74873 2.17198 1.86192 2.26699C1.98602 2.37436 2.17366 2.42757 2.42086 2.42757L6.50324 2.42757C6.96588 2.42757 7.30739 2.54823 7.52482 2.78956C7.76607 3.04325 7.81769 3.35014 7.6797 3.71308L7.43448 4.35918C7.29846 4.72497 7.01253 5.03376 6.57968 5.28269Z"
         fill="#000000"
         transform="translate(28.9872, -4.31183)"
         id="path4174" />
      <path
         d="M4.37411 4.51431C3.9901 4.75131 3.59632 4.86981 3.19375 4.86981L1.26002 4.86981C0.866237 4.86981 0.546718 4.75359 0.300482 4.52229C0.00245863 4.23744 -0.0727801 3.86486 0.0698802 3.40681L0.676675 1.463C0.817381 1.01293 1.12225 0.644902 1.59419 0.355494C1.98211 0.118498 2.37784 0 2.78043 0L4.71415 0C5.09425 0 5.40693 0.110522 5.65219 0.332705C5.95998 0.622114 6.04304 0.995838 5.89941 1.45502L5.29066 3.40681C5.15093 3.8546 4.84607 4.2249 4.37411 4.51431ZM5.07568 1.45502C5.12064 1.31031 5.06396 1.19067 4.90469 1.0904C4.76887 1.00268 4.60471 0.959377 4.41515 0.959377L2.48143 0.959377C2.28698 0.959377 2.09643 1.0004 1.91175 1.08244C1.68507 1.18612 1.54827 1.30917 1.50332 1.45388L0.89262 3.41365C0.847672 3.55836 0.904345 3.67913 1.06362 3.77712C1.20725 3.86941 1.37043 3.91612 1.55218 3.91612L3.49079 3.91612C3.57873 3.91612 3.66961 3.90588 3.76634 3.88536C3.86112 3.86372 3.95786 3.83181 4.05557 3.78395C4.28227 3.68141 4.41906 3.55494 4.46596 3.40567Z"
         fill="#000000"
         transform="translate(37.6705, -2.64631)"
         id="path4176" />
      <path
         d="M2.13891 2.3801L0.862725 5.63045L0 5.63045L1.73568 1.20618C1.8851 0.827532 2.16347 0.5248 2.57385 0.296089C2.93408 0.0986965 3.38438 0 3.92781 0L3.62181 0.78103C3.28306 0.827532 3.03745 0.888268 2.88189 0.960392C2.72838 1.03442 2.63422 1.11698 2.59841 1.20618L2.449 1.58674L3.31069 1.58674L2.99958 2.3801Z"
         fill="#000000"
         transform="translate(43.9086, -4.30483)"
         id="path4178" />
      <path
         d="M1.8125 2.38821L0.734166 5.64184L0 5.64184L1.07834 2.38821L0.355409 2.38821L0.618291 1.59404L1.34121 1.59404L1.86958 0L2.60374 0L2.07538 1.59404L2.80436 1.59404L2.54148 2.38821Z"
         fill="#000000"
         transform="translate(47.7203, -4.31083)"
         id="path4180" />
      <path
         d="M4.89164 4.46991C4.55383 4.71186 4.17059 4.83341 3.74666 4.83341C3.51578 4.83341 3.29908 4.79366 3.10036 4.71641C2.90071 4.63916 2.73133 4.51876 2.59128 4.35405C2.35092 4.51421 2.10301 4.63463 1.84847 4.71641C1.59391 4.79934 1.35073 4.84023 1.1189 4.84023C0.711054 4.84023 0.407304 4.72209 0.204804 4.48582C-0.0185134 4.21774 -0.0592027 3.84969 0.0827366 3.38169L1.10754 0L1.90524 0L0.877597 3.3885C0.834069 3.53277 0.870972 3.64976 0.988309 3.74291C1.11795 3.84061 1.29774 3.88945 1.52863 3.88945C1.76424 3.88945 1.97242 3.84061 2.15222 3.74291C2.32917 3.65545 2.43988 3.53503 2.48719 3.38169L3.11929 1.29724L3.91699 1.29724L3.28299 3.38964C3.23757 3.53958 3.27542 3.65431 3.39654 3.73724C3.52524 3.83493 3.70124 3.88377 3.92456 3.88377C4.16396 3.88377 4.37404 3.83493 4.55383 3.73724C4.73173 3.64976 4.8396 3.5339 4.88408 3.38964L5.91171 0.00113594L6.71603 0.00113594L5.69123 3.38282C5.55497 3.83493 5.28718 4.19842 4.89164 4.46991Z"
         fill="#000000"
         transform="translate(51.0827, -2.63432)"
         id="path4182" />
      <path
         d="M4.4047 4.49377C4.01727 4.7255 3.61811 4.84023 3.20525 4.84023L1.27008 4.84023C0.853307 4.84023 0.524583 4.72777 0.286845 4.50058C-0.000789185 4.2325 -0.0731868 3.8656 0.0745433 3.39645C0.216404 2.94435 0.521648 2.57858 0.990275 2.30027C1.37867 2.064 1.77588 1.94473 2.17799 1.94473L4.11413 1.94473C4.23838 1.94473 4.35578 1.95949 4.46731 1.98448C4.57982 2.00948 4.71386 2.05832 4.87333 2.13102L5.07877 1.47444C5.10519 1.33586 5.03965 1.21318 4.88311 1.10413C4.74222 1.0019 4.59058 0.949644 4.4272 0.949644L2.49203 0.949644C2.40887 0.949644 2.32474 0.957595 2.24255 0.972362C2.16037 0.988265 2.07721 1.01779 1.99308 1.05755C1.77686 1.15524 1.59293 1.33927 1.44324 1.60507L0.625352 1.60507C0.884614 1.01893 1.2329 0.594095 1.67022 0.331694C2.03709 0.110186 2.40691 0 2.78455 0L4.7256 0C5.10617 0 5.42022 0.110186 5.6648 0.331694C5.97592 0.609998 6.05908 0.982586 5.91233 1.45059L5.30478 3.3885C5.15802 3.84855 4.85865 4.21547 4.4047 4.49377ZM4.47513 3.39645C4.52014 3.25333 4.46339 3.13178 4.30294 3.03409C4.15913 2.94094 3.99672 2.89437 3.81476 2.89437L1.87861 2.89437C1.65261 2.89437 1.43346 2.9523 1.22117 3.06589C1.04604 3.1579 0.939402 3.26582 0.900267 3.38964C0.859177 3.518 0.896354 3.62819 1.00788 3.72133C1.14191 3.83379 1.32584 3.89058 1.56065 3.89058L3.50169 3.89058C3.69246 3.89058 3.8803 3.84969 4.06521 3.76677C4.29414 3.66454 4.42916 3.54185 4.47513 3.39645Z"
         fill="#000000"
         transform="translate(58.0974, -2.63332)"
         id="path4184" />
      <path
         d="M5.72615 1.60659C5.74367 1.33958 5.67049 1.15665 5.50765 1.05894C5.44685 1.01803 5.37882 0.988497 5.30153 0.973727C5.22423 0.958956 5.14384 0.951002 5.06036 0.951002L3.02179 0.951002C2.81669 0.951002 2.61263 0.994179 2.41063 1.08281C2.17771 1.18052 2.03754 1.30322 1.98808 1.45321L0.868815 4.84251L0 4.84251L1.59849 0.0011362L2.46732 0.0011362L2.40135 0.201108C2.57347 0.129527 2.73425 0.0783981 2.88266 0.0465844C3.03107 0.0159069 3.17948 0 3.32892 0L5.37367 0C5.76119 0 6.07759 0.10794 6.32391 0.323818C6.6197 0.586281 6.70729 1.0135 6.58671 1.60545L5.72615 1.60545Z"
         fill="#000000"
         transform="translate(64.3422, -2.63432)"
         id="path4186" />
      <path
         d="M5.90271 1.43468C5.76191 1.88338 5.45685 2.25029 4.98556 2.53882C4.59738 2.77509 4.20236 2.89323 3.80442 2.89323L1.87039 2.89323C1.74132 2.89323 1.62301 2.88187 1.50959 2.85574C1.39813 2.83076 1.2632 2.78191 1.10381 2.70921L0.900433 3.3567L0.895544 3.3726C0.867189 3.50664 0.935633 3.62819 1.10088 3.7361C1.17127 3.79289 1.24559 3.83152 1.32283 3.85651C1.40008 3.87922 1.47928 3.89058 1.5575 3.89058L3.49251 3.89058C3.5717 3.89058 3.65286 3.88263 3.73499 3.86787C3.81811 3.85196 3.90121 3.82243 3.98433 3.78267C4.20041 3.68384 4.38423 3.50095 4.53481 3.23401L5.35124 3.23401C5.09702 3.82015 4.74796 4.245 4.30209 4.50853C3.93641 4.72891 3.56779 4.84023 3.19527 4.84023L1.26026 4.84023C0.887723 4.84023 0.575815 4.72777 0.32355 4.50058C0.00870845 4.2166 -0.0763575 3.84401 0.0683523 3.38169L0.675547 1.44377C0.819279 0.984857 1.11848 0.620222 1.57119 0.34646C1.9535 0.11473 2.35438 0 2.7758 0L4.71081 0C5.11756 0 5.44218 0.110186 5.68271 0.331694C5.97604 0.604319 6.0484 0.971226 5.90271 1.43468ZM5.07355 1.45059C5.11267 1.32791 5.07355 1.21886 4.95622 1.12685C4.83009 1.00871 4.64627 0.949644 4.4077 0.949644L2.48052 0.949644C2.31234 0.949644 2.1207 0.992809 1.90852 1.08142C1.68461 1.17456 1.54968 1.29496 1.50275 1.44377C1.45776 1.5869 1.51546 1.70845 1.67483 1.80614C1.81857 1.89929 1.98381 1.94473 2.16959 1.94473L4.10361 1.94473C4.33338 1.94473 4.55045 1.88906 4.7548 1.77546C4.92885 1.68232 5.03543 1.57441 5.07355 1.45059Z"
         fill="#000000"
         transform="translate(71.3618, -2.63232)"
         id="path4188" />
    </g>
    <g
       fill="none"
       transform="translate(22.453, 70.0007)"
       id="g2636">
      <path
         d="M8.64521 1.41355C8.68289 1.17701 8.63789 1.01362 8.5081 0.923365L8.51542 0.923365C8.39611 0.841669 8.22446 0.80082 7.99525 0.80082L3.70613 0.80082C3.44971 0.80082 3.21213 0.854018 2.99442 0.961364C2.80079 1.05256 2.68043 1.15895 2.6302 1.28435L2.17491 2.42051L5.33994 2.42051L5.02071 3.21468L1.85569 3.21468L0.882313 5.64184L0 5.64184L1.74788 1.28435C1.89022 0.928115 2.18956 0.621277 2.6417 0.367636C3.0813 0.123495 3.5439 0 4.0264 0L8.31552 0C8.77081 0 9.10886 0.114946 9.3318 0.341987C9.57671 0.569979 9.64475 0.927165 9.53485 1.41355Z"
         fill="#ffffff"
         transform="translate(-5.56812, -4.31073)"
         id="path2638" />
      <path
         d="M5.72615 1.60659C5.74367 1.33958 5.67049 1.15665 5.50765 1.05894C5.44685 1.01803 5.37882 0.988497 5.30153 0.973727C5.22423 0.958956 5.14384 0.951002 5.06036 0.951002L3.02076 0.951002C2.81566 0.951002 2.6116 0.994179 2.41063 1.08281C2.17771 1.18052 2.03754 1.30322 1.98808 1.45321L0.868815 4.84251L0 4.84251L1.59849 0.0011362L2.46732 0.0011362L2.40135 0.201108C2.57347 0.129527 2.73322 0.0783981 2.88266 0.0465844C3.03003 0.0159069 3.17948 0 3.32892 0L5.37367 0C5.76119 0 6.07759 0.10794 6.32391 0.323818C6.6197 0.586281 6.70729 1.0135 6.58671 1.60545L5.72615 1.60545Z"
         fill="#ffffff"
         transform="translate(3.1853, -2.63422)"
         id="path2640" />
      <path
         d="M5.90059 1.43468C5.75981 1.88338 5.45481 2.25029 4.98362 2.53882C4.59551 2.77509 4.20057 2.89323 3.8027 2.89323L1.86807 2.89323C1.74 2.89323 1.62074 2.88187 1.50832 2.85574C1.39688 2.83076 1.26197 2.78191 1.10262 2.70921L0.899281 3.3567L0.894394 3.3726C0.865066 3.50664 0.934474 3.62819 1.09969 3.7361C1.17007 3.79289 1.24438 3.83152 1.3216 3.85651C1.39883 3.87922 1.47801 3.89058 1.55622 3.89058L3.49085 3.89058C3.57003 3.89058 3.65118 3.88263 3.73329 3.86787C3.81639 3.85196 3.8985 3.82243 3.98258 3.78267C4.19862 3.68384 4.3824 3.50095 4.53295 3.23401L5.34922 3.23401C5.09506 3.82015 4.74606 4.245 4.30028 4.50853C3.93467 4.72891 3.56612 4.84023 3.19367 4.84023L1.26002 4.84023C0.88755 4.84023 0.575703 4.72777 0.323487 4.50058C0.00870669 4.2166 -0.0763427 3.84401 0.0683391 3.38169L0.675416 1.44377C0.81912 0.984857 1.11826 0.620222 1.57089 0.34646C1.95214 0.11473 2.35392 0 2.77527 0L4.70892 0C5.11656 0 5.44015 0.110186 5.6816 0.331694C5.97292 0.604319 6.04624 0.971226 5.90059 1.43468ZM5.07159 1.45059C5.1107 1.32791 5.07159 1.21886 4.95429 1.12685C4.82818 1.00871 4.64439 0.949644 4.40587 0.949644L2.47906 0.949644C2.31092 0.949644 2.11931 0.992809 1.90717 1.08142C1.68331 1.17456 1.5484 1.29496 1.50148 1.44377C1.4565 1.5869 1.51321 1.70845 1.67255 1.80614C1.81626 1.89929 1.98147 1.94473 2.16721 1.94473L4.10184 1.94473C4.33157 1.94473 4.54859 1.88906 4.7529 1.77546C4.92593 1.68232 5.03348 1.57441 5.07159 1.45059Z"
         fill="#ffffff"
         transform="translate(10.2059, -2.63222)"
         id="path2642" />
      <path
         d="M5.90147 1.43468C5.7607 1.88338 5.45568 2.25029 4.98447 2.53882C4.59635 2.77509 4.20139 2.89323 3.80351 2.89323L1.86978 2.89323C1.74073 2.89323 1.62244 2.88187 1.50904 2.85574C1.39759 2.83076 1.26268 2.78191 1.1043 2.70921L0.900957 3.3567L0.896069 3.3726C0.86674 3.50664 0.935174 3.62819 1.10039 3.7361C1.17175 3.79289 1.24508 3.83152 1.32231 3.85651C1.39955 3.87922 1.47873 3.89058 1.55694 3.89058L3.49165 3.89058C3.57083 3.89058 3.65198 3.88263 3.73409 3.86787C3.81719 3.85196 3.90029 3.82243 3.98339 3.78267C4.19944 3.68384 4.38323 3.50095 4.53379 3.23401L5.35009 3.23401C5.09591 3.82015 4.7469 4.245 4.30111 4.50853C3.93548 4.72891 3.56692 4.84023 3.19445 4.84023L1.25975 4.84023C0.888248 4.84023 0.575411 4.72777 0.323186 4.50058C0.00839336 4.2166 -0.0766593 3.84401 0.0690056 3.38169L0.676105 1.44377C0.819815 0.984857 1.11897 0.620222 1.57259 0.34646C1.95385 0.11473 2.35565 0 2.77603 0L4.71074 0C5.11742 0 5.44199 0.110186 5.68248 0.331694C5.97381 0.604319 6.04616 0.971226 5.90147 1.43468ZM5.07245 1.45059C5.11156 1.32791 5.07147 1.21886 4.95416 1.12685C4.82805 1.00871 4.64425 0.949644 4.40572 0.949644L2.47884 0.949644C2.31069 0.949644 2.11907 0.992809 1.90692 1.08142C1.68305 1.17456 1.54814 1.29496 1.50122 1.44377C1.45624 1.5869 1.51393 1.70845 1.67328 1.80614C1.81699 1.89929 1.98221 1.94473 2.16796 1.94473L4.10168 1.94473C4.33142 1.94473 4.54845 1.88906 4.75277 1.77546C4.92678 1.68232 5.03335 1.57441 5.07245 1.45059Z"
         fill="#ffffff"
         transform="translate(16.8388, -2.63222)"
         id="path2644" />
      <path
         d="M6.57968 5.28269C6.17859 5.52308 5.74573 5.64374 5.28309 5.64374L1.20071 5.64374C0.772819 5.64374 0.453138 5.53352 0.239687 5.31405C0.0103517 5.07747 -0.0541801 4.71642 0.0450995 4.22995L0.875076 4.22995C0.846285 4.45799 0.891954 4.62141 1.01208 4.72022L1.00513 4.72022C1.12626 4.80573 1.29204 4.84943 1.50252 4.84943L5.5849 4.84943C5.82317 4.84943 6.04556 4.79528 6.25205 4.68886C6.44068 4.5929 6.55982 4.48459 6.60748 4.35918L6.85269 3.71308C6.90035 3.58862 6.8656 3.4784 6.74845 3.38339C6.62435 3.27603 6.4387 3.22188 6.19646 3.22188L2.12103 3.22188C1.66336 3.22188 1.31885 3.10216 1.09151 2.86082C0.849264 2.60999 0.797638 2.30215 0.938615 1.93065L1.18483 1.28457C1.31984 0.928272 1.60378 0.621382 2.03267 0.367698C2.44965 0.123516 2.88847 0 3.34615 0L7.42852 0C7.85642 0 8.17312 0.114965 8.38358 0.342045C8.6159 0.570075 8.68142 0.927321 8.57619 1.41379L7.74721 1.41379C7.775 1.18576 7.72934 1.02138 7.60821 0.923521L7.61516 0.923521C7.50298 0.84181 7.33817 0.800955 7.12274 0.800955L3.04036 0.800955C2.79712 0.800955 2.56978 0.854162 2.35831 0.961526C2.17465 1.05273 2.06047 1.15915 2.01282 1.28457L1.7666 1.93065C1.71697 2.05987 1.74873 2.17198 1.86192 2.26699C1.98602 2.37436 2.17366 2.42757 2.42086 2.42757L6.50324 2.42757C6.96588 2.42757 7.30739 2.54823 7.52482 2.78956C7.76607 3.04325 7.81769 3.35014 7.6797 3.71308L7.43448 4.35918C7.29846 4.72497 7.01253 5.03376 6.57968 5.28269Z"
         fill="#ffffff"
         transform="translate(28.9872, -4.31173)"
         id="path2646" />
      <path
         d="M4.37411 4.51431C3.9901 4.75131 3.59632 4.86981 3.19375 4.86981L1.26002 4.86981C0.866237 4.86981 0.546718 4.75359 0.300482 4.52229C0.00245863 4.23744 -0.0727801 3.86486 0.0698802 3.40681L0.676675 1.463C0.817381 1.01293 1.12225 0.644902 1.59419 0.355494C1.98211 0.118498 2.37784 0 2.78043 0L4.71415 0C5.09425 0 5.40693 0.110522 5.65219 0.332705C5.95998 0.622114 6.04304 0.995838 5.89941 1.45502L5.29066 3.40681C5.15093 3.8546 4.84607 4.2249 4.37411 4.51431ZM5.07568 1.45502C5.12064 1.31031 5.06396 1.19067 4.90469 1.0904C4.76887 1.00268 4.60471 0.959377 4.41515 0.959377L2.48143 0.959377C2.28698 0.959377 2.09643 1.0004 1.91175 1.08244C1.68507 1.18612 1.54827 1.30917 1.50332 1.45388L0.89262 3.41365C0.847672 3.55836 0.904345 3.67913 1.06362 3.77712C1.20725 3.86941 1.37043 3.91612 1.55218 3.91612L3.49079 3.91612C3.57873 3.91612 3.66961 3.90588 3.76634 3.88536C3.86112 3.86372 3.95786 3.83181 4.05557 3.78395C4.28227 3.68141 4.41906 3.55494 4.46596 3.40567Z"
         fill="#ffffff"
         transform="translate(37.6705, -2.64621)"
         id="path2648" />
      <path
         d="M2.13891 2.3801L0.862725 5.63045L0 5.63045L1.73568 1.20618C1.8851 0.827532 2.16347 0.5248 2.57385 0.296089C2.93408 0.0986965 3.38438 0 3.92781 0L3.62181 0.78103C3.28306 0.827532 3.03745 0.888268 2.88189 0.960392C2.72838 1.03442 2.63422 1.11698 2.59841 1.20618L2.449 1.58674L3.31069 1.58674L2.99958 2.3801Z"
         fill="#ffffff"
         transform="translate(43.9086, -4.30473)"
         id="path2650" />
      <path
         d="M1.8125 2.38821L0.734166 5.64184L0 5.64184L1.07834 2.38821L0.355409 2.38821L0.618291 1.59404L1.34121 1.59404L1.86958 0L2.60374 0L2.07538 1.59404L2.80436 1.59404L2.54148 2.38821Z"
         fill="#ffffff"
         transform="translate(47.7203, -4.31073)"
         id="path2652" />
      <path
         d="M4.89164 4.46991C4.55383 4.71186 4.17059 4.83341 3.74666 4.83341C3.51578 4.83341 3.29908 4.79366 3.10036 4.71641C2.90071 4.63916 2.73133 4.51876 2.59128 4.35405C2.35092 4.51421 2.10301 4.63463 1.84847 4.71641C1.59391 4.79934 1.35073 4.84023 1.1189 4.84023C0.711054 4.84023 0.407304 4.72209 0.204804 4.48582C-0.0185134 4.21774 -0.0592027 3.84969 0.0827366 3.38169L1.10754 0L1.90524 0L0.877597 3.3885C0.834069 3.53277 0.870972 3.64976 0.988309 3.74291C1.11795 3.84061 1.29774 3.88945 1.52863 3.88945C1.76424 3.88945 1.97242 3.84061 2.15222 3.74291C2.32917 3.65545 2.43988 3.53503 2.48719 3.38169L3.11929 1.29724L3.91699 1.29724L3.28299 3.38964C3.23757 3.53958 3.27542 3.65431 3.39654 3.73724C3.52524 3.83493 3.70124 3.88377 3.92456 3.88377C4.16396 3.88377 4.37404 3.83493 4.55383 3.73724C4.73173 3.64976 4.8396 3.5339 4.88408 3.38964L5.91171 0.00113594L6.71603 0.00113594L5.69123 3.38282C5.55497 3.83493 5.28718 4.19842 4.89164 4.46991Z"
         fill="#ffffff"
         transform="translate(51.0827, -2.63422)"
         id="path2654" />
      <path
         d="M4.4047 4.49377C4.01727 4.7255 3.61811 4.84023 3.20525 4.84023L1.27008 4.84023C0.853307 4.84023 0.524583 4.72777 0.286845 4.50058C-0.000789185 4.2325 -0.0731868 3.8656 0.0745433 3.39645C0.216404 2.94435 0.521648 2.57858 0.990275 2.30027C1.37867 2.064 1.77588 1.94473 2.17799 1.94473L4.11413 1.94473C4.23838 1.94473 4.35578 1.95949 4.46731 1.98448C4.57982 2.00948 4.71386 2.05832 4.87333 2.13102L5.07877 1.47444C5.10519 1.33586 5.03965 1.21318 4.88311 1.10413C4.74222 1.0019 4.59058 0.949644 4.4272 0.949644L2.49203 0.949644C2.40887 0.949644 2.32474 0.957595 2.24255 0.972362C2.16037 0.988265 2.07721 1.01779 1.99308 1.05755C1.77686 1.15524 1.59293 1.33927 1.44324 1.60507L0.625352 1.60507C0.884614 1.01893 1.2329 0.594095 1.67022 0.331694C2.03709 0.110186 2.40691 0 2.78455 0L4.7256 0C5.10617 0 5.42022 0.110186 5.6648 0.331694C5.97592 0.609998 6.05908 0.982586 5.91233 1.45059L5.30478 3.3885C5.15802 3.84855 4.85865 4.21547 4.4047 4.49377ZM4.47513 3.39645C4.52014 3.25333 4.46339 3.13178 4.30294 3.03409C4.15913 2.94094 3.99672 2.89437 3.81476 2.89437L1.87861 2.89437C1.65261 2.89437 1.43346 2.9523 1.22117 3.06589C1.04604 3.1579 0.939402 3.26582 0.900267 3.38964C0.859177 3.518 0.896354 3.62819 1.00788 3.72133C1.14191 3.83379 1.32584 3.89058 1.56065 3.89058L3.50169 3.89058C3.69246 3.89058 3.8803 3.84969 4.06521 3.76677C4.29414 3.66454 4.42916 3.54185 4.47513 3.39645Z"
         fill="#ffffff"
         transform="translate(58.0974, -2.63322)"
         id="path2656" />
      <path
         d="M5.72615 1.60659C5.74367 1.33958 5.67049 1.15665 5.50765 1.05894C5.44685 1.01803 5.37882 0.988497 5.30153 0.973727C5.22423 0.958956 5.14384 0.951002 5.06036 0.951002L3.02179 0.951002C2.81669 0.951002 2.61263 0.994179 2.41063 1.08281C2.17771 1.18052 2.03754 1.30322 1.98808 1.45321L0.868815 4.84251L0 4.84251L1.59849 0.0011362L2.46732 0.0011362L2.40135 0.201108C2.57347 0.129527 2.73425 0.0783981 2.88266 0.0465844C3.03107 0.0159069 3.17948 0 3.32892 0L5.37367 0C5.76119 0 6.07759 0.10794 6.32391 0.323818C6.6197 0.586281 6.70729 1.0135 6.58671 1.60545L5.72615 1.60545Z"
         fill="#ffffff"
         transform="translate(64.3422, -2.63422)"
         id="path2658" />
      <path
         d="M5.90271 1.43468C5.76191 1.88338 5.45685 2.25029 4.98556 2.53882C4.59738 2.77509 4.20236 2.89323 3.80442 2.89323L1.87039 2.89323C1.74132 2.89323 1.62301 2.88187 1.50959 2.85574C1.39813 2.83076 1.2632 2.78191 1.10381 2.70921L0.900433 3.3567L0.895544 3.3726C0.867189 3.50664 0.935633 3.62819 1.10088 3.7361C1.17127 3.79289 1.24559 3.83152 1.32283 3.85651C1.40008 3.87922 1.47928 3.89058 1.5575 3.89058L3.49251 3.89058C3.5717 3.89058 3.65286 3.88263 3.73499 3.86787C3.81811 3.85196 3.90121 3.82243 3.98433 3.78267C4.20041 3.68384 4.38423 3.50095 4.53481 3.23401L5.35124 3.23401C5.09702 3.82015 4.74796 4.245 4.30209 4.50853C3.93641 4.72891 3.56779 4.84023 3.19527 4.84023L1.26026 4.84023C0.887723 4.84023 0.575815 4.72777 0.32355 4.50058C0.00870845 4.2166 -0.0763575 3.84401 0.0683523 3.38169L0.675547 1.44377C0.819279 0.984857 1.11848 0.620222 1.57119 0.34646C1.9535 0.11473 2.35438 0 2.7758 0L4.71081 0C5.11756 0 5.44218 0.110186 5.68271 0.331694C5.97604 0.604319 6.0484 0.971226 5.90271 1.43468ZM5.07355 1.45059C5.11267 1.32791 5.07355 1.21886 4.95622 1.12685C4.83009 1.00871 4.64627 0.949644 4.4077 0.949644L2.48052 0.949644C2.31234 0.949644 2.1207 0.992809 1.90852 1.08142C1.68461 1.17456 1.54968 1.29496 1.50275 1.44377C1.45776 1.5869 1.51546 1.70845 1.67483 1.80614C1.81857 1.89929 1.98381 1.94473 2.16959 1.94473L4.10361 1.94473C4.33338 1.94473 4.55045 1.88906 4.7548 1.77546C4.92885 1.68232 5.03543 1.57441 5.07355 1.45059Z"
         fill="#ffffff"
         transform="translate(71.3619, -2.63222)"
         id="path2660" />
    </g>
    <g
       fill="none"
       transform="translate(123.352, 5.35167)"
       id="g3651">
      <path
         d="M43.1895 0L20.781 39.6858C26.7557 38.4656 33.0645 36.8484 39.2774 34.7444L60.1836 0ZM0 17.8509L0 42.7433C4.23221 42.3356 9.18772 41.7313 14.6782 40.7977L14.6156 17.8509Z"
         fill="url(#gradient2)"
         transform="translate(-5.46743, -4.29298)"
         id="path3594" />
      <path
         d="M30.5025 0C26.0262 3.09038 19.6639 5.05634 12.6089 5.05634C7.98725 5.05634 3.69171 4.19569 0 2.75506L0 10.761L16.6883 10.761C16.9364 10.761 17.6223 10.6816 18.6044 10.5664C19.4192 10.4719 20.4948 10.1109 21.7875 9.43203C21.7978 9.43188 21.8082 9.43186 21.8183 9.43203C23.0583 8.78282 24.4572 7.68801 26.0214 6.15837C27.4629 4.74875 28.991 2.68995 30.5643 0.0324125C30.5433 0.0256811 30.5236 0.00668994 30.5025 0Z"
         fill="#ffffff"
         transform="translate(-5.52992, 44.9427)"
         id="path3685" />
    </g>
    <g
       fill="none"
       transform="translate(6.4461, 66.9147)"
       id="g4410">
      <path
         d="M114.93 3.55891L114.93 2.38609C98.9223 0.910611 76.9625 0 52.7009 0C32.9488 0 14.7432 0.59582 0 1.61768L0 3.55891Z"
         fill="#ffffff"
         transform="translate(-5.49095, 4.37665)"
         id="path3644" />
      <path
         d="M0 0L0 2.56265C16.0075 5.7866 37.9674 7.77631 62.229 7.77631C81.9811 7.77631 100.186 6.47443 114.93 4.24163L114.93 0Z"
         fill="url(#gradient3)"
         transform="translate(-5.52215, -4.31083)"
         id="path3640" />
    </g>
  </g>
</svg>
